<svg id="Concrete" xmlns="http://www.w3.org/2000/svg" width="272.438" height="424.656" viewBox="0 0 272.438 424.656">
  <metadata><?xpacket begin="﻿" id="W5M0MpCehiHzreSzNTczkc9d"?>
<x:xmpmeta xmlns:x="adobe:ns:meta/" x:xmptk="Adobe XMP Core 5.6-c138 79.159824, 2016/09/14-01:09:01        ">
   <rdf:RDF xmlns:rdf="http://www.w3.org/1999/02/22-rdf-syntax-ns#">
      <rdf:Description rdf:about=""/>
   </rdf:RDF>
</x:xmpmeta>
                                                                                                    
                                                                                                    
                                                                                                    
                                                                                                    
                                                                                                    
                                                                                                    
                                                                                                    
                                                                                                    
                                                                                                    
                                                                                                    
                                                                                                    
                                                                                                    
                                                                                                    
                                                                                                    
                                                                                                    
                                                                                                    
                                                                                                    
                                                                                                    
                                                                                                    
                                                                                                    
                           
<?xpacket end="w"?></metadata>
<defs>
    <style>
      .cls-1 {
        fill: #1496de;
      }

      .cls-1, .cls-2, .cls-3 {
        fill-rule: evenodd;
      }

      .cls-2 {
        fill: #2f7ac9;
      }

      .cls-3 {
        fill: #b3fdff;
      }
    </style>
  </defs>
  <path class="cls-1" d="M391.221,315.383l136.215-80.177V499.813L391.221,575.991V315.383Z" transform="translate(-255 -155.344)"/>
  <path id="Rectangle_3_copy" data-name="Rectangle 3 copy" class="cls-2" d="M391.221,311.374L255.006,235.2V495.8l136.215,76.177V311.374Z" transform="translate(-255 -155.344)"/>
  <path class="cls-3" d="M388.23,155.358L527.436,235.2,393.558,316.953,255.006,235.2Z" transform="translate(-255 -155.344)"/>
  <path id="Rectangle_1_copy" data-name="Rectangle 1 copy" class="cls-3" d="M388.23,259.6l139.206,79.838L393.558,421.2,255.006,339.439Z" transform="translate(-255 -155.344)"/>
  <path id="Rectangle_1_copy_2" data-name="Rectangle 1 copy 2" class="cls-3" d="M388.23,367.853l139.206,79.839L393.558,529.449,255.006,447.692Z" transform="translate(-255 -155.344)"/>
  <path id="Rectangle_2_copy_3" data-name="Rectangle 2 copy 3" class="cls-1" d="M255.006,447.692l136.215,80.186V580L255.006,499.813V447.692Z" transform="translate(-255 -155.344)"/>
  <path id="Rectangle_2_copy_3-2" data-name="Rectangle 2 copy 3" class="cls-2" d="M527.436,447.692L391.221,527.878V580l136.215-80.187V447.692Z" transform="translate(-255 -155.344)"/>
  <path id="Rectangle_2_copy_2" data-name="Rectangle 2 copy 2" class="cls-1" d="M255.006,339.439l136.215,80.187v52.122L255.006,391.561V339.439Z" transform="translate(-255 -155.344)"/>
  <path id="Rectangle_2_copy_2-2" data-name="Rectangle 2 copy 2" class="cls-2" d="M527.436,339.439L391.221,419.626v52.122l136.215-80.187V339.439Z" transform="translate(-255 -155.344)"/>
  <path class="cls-1" d="M255.006,235.2l136.215,80.187v52.122L255.006,287.318V235.2Z" transform="translate(-255 -155.344)"/>
  <path id="Rectangle_2_copy" data-name="Rectangle 2 copy" class="cls-2" d="M527.436,235.2L391.221,315.383v52.122l136.215-80.187V235.2Z" transform="translate(-255 -155.344)"/>
</svg>
